<?xml version="1.0" encoding="utf-8"?>
<!-- Svg Vector Icons : http://www.onlinewebfonts.com/icon -->
<!DOCTYPE svg PUBLIC "-//W3C//DTD SVG 1.1//EN" "http://www.w3.org/Graphics/SVG/1.1/DTD/svg11.dtd">
<svg version="1.1" xmlns="http://www.w3.org/2000/svg" xmlns:xlink="http://www.w3.org/1999/xlink" fill="white" x="0px" y="0px" viewBox="0 0 1000 1000" enable-background="new 0 0 1000 1000" xml:space="preserve">
<metadata> Svg Vector Icons : http://www.onlinewebfonts.com/icon </metadata>
<g><path d="M990,438.6c0-0.1,0-0.2,0-0.3c0-1.1-0.1-2.3-0.2-3.4c-0.1-0.6-0.1-1.3-0.2-1.9c-0.1-0.6-0.2-1.2-0.3-1.8c-3.4-20.5-20.3-36.5-41.4-38.3h-892c-25.4,0-45.9,20.6-45.9,45.9s20.6,45.9,45.9,45.9h40.7l98.5,394l0.1,0c5,19.9,22.9,34.8,44.4,34.8l0,0c0.1,0,0.2,0,0.2,0v0h520.4c21.5,0,39.4-14.9,44.4-34.8l0.2,0l98.5-393.9h40.7c25.4,0,45.9-20.6,45.9-45.9c0,0,0,0,0-0.1C990,438.6,990,438.6,990,438.6z M362.2,775.6c0,25.4-20.6,45.9-45.9,45.9c-25.4,0-45.9-20.6-45.9-45.9v-245c0-25.4,20.6-45.9,45.9-45.9c25.4,0,45.9,20.6,45.9,45.9V775.6z M545.9,775.6c0,25.4-20.6,45.9-45.9,45.9c-25.4,0-45.9-20.6-45.9-45.9v-245c0-25.4,20.6-45.9,45.9-45.9c25.4,0,45.9,20.6,45.9,45.9V775.6z M729.7,775.6c0,25.4-20.6,45.9-45.9,45.9s-45.9-20.6-45.9-45.9v-245c0-25.4,20.6-45.9,45.9-45.9s45.9,20.6,45.9,45.9V775.6z M551.8,155l101.6,191.9h104L633,112l-0.2,0.1c-7.5-15.1-23-25.5-41-25.5c-25.4,0-45.9,20.6-45.9,45.9c0,8.2,2.3,15.7,6.1,22.4L551.8,155z M448.3,155l-0.3-0.1c3.7-6.6,6-14.2,6-22.4c0-25.4-20.6-45.9-45.9-45.9c-18,0-33.4,10.4-40.9,25.5l-0.1,0L242.8,346.9h104L448.3,155z"/></g>
</svg>